{
  "project_info": {
    "project_number": "668750976874",
    "project_id": "comidapp-346900",
    "storage_bucket": "comidapp-346900.appspot.com"
  },
  "client": [
    {
      "client_info": {
        "mobilesdk_app_id": "1:668750976874:android:25137d69c37282f471f713",
        "android_client_info": {
          "package_name": "uoc.edgardopanchana.comidapp"
        }
      },
      "oauth_client": [
        {
          "client_id": "668750976874-jer26j3ki0eqd3unklj7339ov80ebekv.apps.googleusercontent.com",
          "client_type": 3
        }
      ],
      "api_key": [
        {
          "current_key": "AIzaSyD2PYyKleQJ3MmhaC846mUNwF33esnmEY4"
        }
      ],
      "services": {
        "appinvite_service": {
          "other_platform_oauth_client": [
            {
              "client_id": "668750976874-jer26j3ki0eqd3unklj7339ov80ebekv.apps.googleusercontent.com",
              "client_type": 3
            }
          ]
        }
      }
    }
  ],
  "configuration_version": "1"
}